{
    "required": true,
    "package": "org.waterpicker.chunkwrap.core.mixin",
    "refmap": "chunkwrap.refmap.json",
    "compatibilityLevel": "JAVA_8",
    "minVersion": "0.7.10-SNAPSHOT",
    "mixins": [
        "MixinPlayerChunkMap",
        "MixinPlayerChunkMapEntry",
        "MixinChunkCache",

        "MixinWorld"
    ],
    "client": [
        "client.MixinChunkRenderWorker",
        "client.MixinMinecraft",
        "client.MixinListChunkFactory",
        "client.MixinVboChunkFactory",
        "client.MixinViewFrustum",
        "client.MixinChunkRenderDispatcher",
        "client.MixinRenderGlobal",
        "client.MixinRenderChunk"
    ],
    "server": [
    ],
    "injectors": {
        "defaultRequire": 1
    },
    "overwrites": {
        "conformVisibility": true
    }
}